<svg width="20" height="20" viewBox="0 0 20 20" fill="none" xmlns="http://www.w3.org/2000/svg">
<path d="M9.08325 5.41658H10.9166V7.24992H9.08325V5.41658ZM9.08325 9.08325H10.9166V14.5833H9.08325V9.08325ZM9.99992 0.833252C4.93992 0.833252 0.833252 4.93992 0.833252 9.99992C0.833252 15.0599 4.93992 19.1666 9.99992 19.1666C15.0599 19.1666 19.1666 15.0599 19.1666 9.99992C19.1666 4.93992 15.0599 0.833252 9.99992 0.833252ZM9.99992 17.3333C5.95742 17.3333 2.66659 14.0424 2.66659 9.99992C2.66659 5.95742 5.95742 2.66659 9.99992 2.66659C14.0424 2.66659 17.3333 5.95742 17.3333 9.99992C17.3333 14.0424 14.0424 17.3333 9.99992 17.3333Z" fill="#183E98"/>
</svg>
