<svg width="13" height="17" viewBox="0 0 13 17" fill="none" xmlns="http://www.w3.org/2000/svg">
<path d="M7.49723 4.12668C7.83956 3.93269 8.14196 3.68734 8.40442 3.39065C8.66688 3.09396 8.86658 2.76303 9.00352 2.39787V2.36363C9.07199 2.21529 9.12334 2.05553 9.15757 1.88436C9.20322 1.70178 9.22604 1.51349 9.22604 1.3195C9.22604 1.25103 9.22033 1.18256 9.20892 1.11409C9.20892 1.04563 9.20322 0.977159 9.1918 0.908691V0.925808H9.10622C8.684 0.982865 8.29602 1.11409 7.94227 1.3195C7.58852 1.5249 7.28041 1.78166 7.01795 2.08976C6.75549 2.37504 6.54438 2.70027 6.38462 3.06543C6.23628 3.43059 6.1621 3.81857 6.1621 4.22938C6.1621 4.26361 6.1621 4.29785 6.1621 4.33208C6.1621 4.36632 6.16781 4.40055 6.17922 4.43478C6.19063 4.43478 6.20775 4.43478 6.23057 4.43478C6.25339 4.43478 6.27622 4.43478 6.29904 4.43478C6.52726 4.43478 6.73837 4.40626 6.93237 4.3492C7.13777 4.29214 7.32606 4.21226 7.49723 4.10956V4.12668ZM10.3044 9.296C10.3044 9.26176 10.3044 9.22182 10.3044 9.17618C10.3044 9.13053 10.3044 9.08489 10.3044 9.03924C10.3044 8.73114 10.3443 8.43444 10.4242 8.14916C10.5041 7.85247 10.6239 7.5843 10.7837 7.34467V7.36178C10.932 7.11073 11.1032 6.88821 11.2972 6.69422C11.4912 6.48882 11.7023 6.30624 11.9305 6.14648H11.9476C11.7879 5.90684 11.6053 5.69573 11.3999 5.51315C11.1945 5.31916 10.972 5.1594 10.7323 5.03388L10.7152 5.01676C10.4642 4.87982 10.1903 4.77712 9.8936 4.70865C9.59691 4.62878 9.2888 4.58884 8.96928 4.58884C8.93505 4.58884 8.90082 4.58884 8.86658 4.58884C8.83235 4.58884 8.79811 4.58884 8.76388 4.58884C8.41013 4.64589 8.0735 4.72577 7.75398 4.82847C7.43446 4.93118 7.12636 5.05099 6.82966 5.18793L6.8639 5.17081C6.79543 5.20505 6.72126 5.23357 6.64138 5.2564C6.5615 5.27922 6.48162 5.29634 6.40174 5.30775C6.39033 5.30775 6.37892 5.30775 6.36751 5.30775C6.36751 5.30775 6.3618 5.30775 6.35039 5.30775C6.2591 5.30775 6.16781 5.30204 6.07652 5.29063C5.99664 5.26781 5.91676 5.23928 5.83688 5.20505H5.854C5.58013 5.07952 5.28914 4.97112 4.98103 4.87982C4.67293 4.77712 4.35341 4.69724 4.02248 4.64019L3.98825 4.62307C3.95402 4.62307 3.91978 4.62307 3.88555 4.62307C3.86273 4.62307 3.8399 4.62307 3.81708 4.62307C3.65732 4.62307 3.49756 4.63448 3.33781 4.6573C3.17805 4.68013 3.02399 4.71436 2.87565 4.76001H2.89277C2.31079 4.91976 1.79728 5.20505 1.35224 5.61585C0.907199 6.02666 0.581976 6.51164 0.376573 7.07079L0.359456 7.08791C0.245343 7.38461 0.154053 7.70412 0.0855848 8.04646C0.0285283 8.37739 0 8.72543 0 9.0906C0 9.11342 0 9.14195 0 9.17618C0 9.199 0 9.22182 0 9.24465C0.0114113 9.62122 0.0456452 9.99209 0.102702 10.3572C0.159758 10.7224 0.239637 11.0762 0.342339 11.4185L0.325222 11.3671C0.416513 11.6981 0.519214 12.0119 0.633327 12.3086C0.74744 12.6053 0.87867 12.8906 1.02702 13.1644L0.992783 13.1131C1.14113 13.3984 1.29518 13.6722 1.45494 13.9347C1.6147 14.1857 1.78016 14.4254 1.95133 14.6536L1.93422 14.6194C2.09397 14.8704 2.27085 15.0986 2.46484 15.3041C2.67024 15.5095 2.89277 15.692 3.1324 15.8518H3.14952C3.27504 15.9317 3.40627 15.9944 3.54321 16.0401C3.69156 16.0743 3.84561 16.0914 4.00537 16.0914C4.02819 16.0914 4.05101 16.0914 4.07383 16.0914C4.09666 16.0914 4.11948 16.0914 4.1423 16.0914C4.49605 16.0572 4.80416 15.9659 5.06662 15.8176C5.34049 15.6692 5.6543 15.5665 6.00805 15.5095C6.07652 15.498 6.14499 15.4923 6.21345 15.4923C6.29333 15.4809 6.37321 15.4752 6.45309 15.4752C6.57862 15.4752 6.69843 15.4809 6.81255 15.4923C6.92666 15.5037 7.04077 15.5209 7.15489 15.5437H7.13777C7.4687 15.6236 7.76539 15.7434 8.02785 15.9031C8.30172 16.0515 8.63836 16.1085 9.03775 16.0743C9.35727 16.0401 9.64826 15.9488 9.91072 15.8004C10.1846 15.6407 10.4128 15.4353 10.5954 15.1842C10.6867 15.0815 10.7723 14.9731 10.8521 14.859C10.9434 14.7449 11.029 14.6308 11.1089 14.5167L11.126 14.4824C11.3771 14.1401 11.6053 13.7692 11.8107 13.3698C12.0275 12.9704 12.2044 12.5539 12.3413 12.1203L12.3584 12.0518C11.7993 11.8122 11.3371 11.447 10.972 10.9563C10.6068 10.4542 10.3957 9.88939 10.3386 9.26176V9.24465L10.3044 9.296Z" fill="white"/>
</svg>
