<svg width="408" height="284" viewBox="0 0 408 284" fill="none" xmlns="http://www.w3.org/2000/svg">
<g clip-path="url(#clip0_301_2825)">
<path d="M0.5 3.22721C0.5 1.6203 1.80266 0.317627 3.40956 0.317627H404.929C406.536 0.317627 407.839 1.62028 407.839 3.22719V284H0.5V3.22721Z" fill="#183E98"/>
<path d="M293.571 22.1393V286.182H264.581V113.442C264.581 112.897 264.581 112.351 264.549 111.805C263.072 70.8086 206.698 48.7854 206.698 48.7854C206.698 48.7854 150.292 70.8086 148.815 111.805C148.783 112.351 148.783 112.897 148.783 113.442V286.182H119.793V22.1393H293.571Z" fill="#F07824"/>
<path d="M199.392 120.84L199.946 117.308C199.946 117.308 193.159 105.639 173.976 94.5924L161.025 88.4634C158.393 87.2168 157.147 84.2042 158.151 81.4686C160.817 74.2315 167.812 61.1769 184.745 56.4676C208.638 49.8538 240.98 58.476 240.98 58.476C240.98 58.476 227.648 57.8527 217.156 59.03L244.131 66.1287C244.131 66.1287 210.992 66.2672 206.56 67.9985L235.959 71.6691L212.378 74.37C212.378 74.37 232.254 77.902 236.271 79.4256C236.271 79.4256 218.022 80.5683 215.667 81.8149L234.574 85.8317C234.574 85.8317 222.523 86.5589 218.541 88.6365L234.297 91.6491C234.297 91.6491 225.536 94.3154 222.073 95.4235L233.916 97.5011C233.916 97.5011 223.943 102.107 222.939 102.522C222.939 102.522 232.115 102.418 235.024 103.561C235.024 103.561 229.795 105.292 226.194 107.993L232.185 110.14L233.916 108.894C233.916 108.894 253.03 109.829 252.857 111.075C252.684 112.322 247.49 115.681 247.49 115.681L231.63 119.282L199.392 120.84Z" fill="white"/>
<path d="M300.193 166.964C300.193 166.964 307.084 184.381 307.811 185.178C307.811 185.178 312.693 182.442 314.702 178.876C316.71 175.274 318.061 172.435 318.061 172.435L320.104 171.223C320.104 171.223 318.199 168.21 318.061 165.613L320.104 165.094C320.104 165.094 318.684 157.995 320.104 154.256C321.523 150.516 321.973 149.581 321.973 149.581L319.307 145.633H321.523L318.061 140.266C295.033 108.513 239.733 97.7436 207.426 113.603C181.698 126.242 180.382 142.759 154.03 145.737C127.679 148.715 131.038 121.844 131.038 121.844C127.159 99.5788 112.581 101.414 112.581 101.414C112.581 99.2325 110.296 98.9555 110.296 98.9555C110.296 98.9555 110.296 98.9555 110.781 100.306C111.265 101.656 107.664 101.137 107.664 101.137C107.664 101.137 107.283 99.752 106.556 99.752C105.829 99.752 104.721 101.379 104.721 101.379C104.721 101.379 104.236 99.9251 103.336 97.9167C102.435 95.9083 98.0031 97.4665 98.0031 97.4665C98.0031 97.4665 101.362 97.9167 101.362 100.652C101.362 103.388 99.5267 103.873 96.1678 105.95C92.809 108.028 93.3284 110.902 93.3284 110.902C92.7743 111.075 89.5886 112.91 89.277 115.854C88.9307 118.797 91.2853 120.632 91.2853 120.632C91.0776 117.273 94.7481 116.685 94.7481 116.685L96.0986 117.308C94.9905 119.247 92.151 119.316 92.151 119.316C94.8173 121.879 98.7302 119.663 98.7302 119.663C101.12 121.429 102.782 120.771 102.782 120.771C105.413 123.541 107.837 122.987 107.837 122.987C107.837 122.987 108.945 123.714 110.019 125.48C111.092 127.246 111.092 130.12 111.092 130.12L112.928 129.843C113.862 131.713 113.62 135.245 113.62 135.245H115.49C115.975 136.665 115.732 141.824 115.732 141.824H118.572C118.814 143.486 120.442 150.066 120.442 150.066L123.489 150.55C124.181 151.485 127.021 157.372 127.021 157.372L129.133 156.887L132.908 162.289L135.02 161.597C135.505 162.081 140.179 166.548 140.179 166.548L142.049 165.129C143.469 165.613 146.551 168.418 146.551 168.418L148.213 167.483L154.654 170.08L156.42 168.176L164.072 169.838C163.726 168.349 163.691 167.691 163.691 167.691C166.739 169.353 176.157 169.561 176.157 169.561L178.062 165.544C180.659 166.964 189.316 168.626 189.316 168.626L199.669 161.112L207.426 152.87C235.474 155.987 261.272 155.745 286.342 149.962C286.342 149.962 291.086 154.81 291.536 155.987L293.163 153.321C293.163 153.321 294.549 158.411 293.821 161.32L297.457 158.688C297.457 158.688 298.288 165.509 297.561 167.241C297.596 167.241 299.05 168.141 300.193 166.964Z" fill="white"/>
<path d="M322.909 257.342C321.627 251.386 320.831 248.408 318.788 246.849C316.71 245.222 312.901 244.772 306.01 243.941C303.413 243.629 300.47 243.283 296.973 242.763C287.138 241.378 281.079 237.95 279.001 232.618C276.369 225.9 280.074 216.308 290.047 204.085C305.63 185.005 301.994 160.454 301.924 160.212L303.967 159.9C304.002 160.142 307.776 185.593 291.64 205.366C282.187 216.966 278.585 225.865 280.906 231.821C282.706 236.427 288.212 239.405 297.25 240.686C300.747 241.171 303.656 241.551 306.253 241.863C321.004 243.664 322.181 244.114 324.917 256.891L322.909 257.342Z" fill="white"/>
<path d="M288.662 284.974C288.523 284.87 274.742 273.997 278.17 253.948C280.005 243.179 284.749 237.846 290.705 231.129C295.968 225.207 302.478 217.866 309.508 204.292C317.126 189.506 317.264 178.876 316.052 172.539C314.736 165.717 311.585 162.289 311.551 162.255L313.04 160.835C313.178 160.973 316.572 164.609 318.026 171.985C319.342 178.668 319.272 189.853 311.343 205.262C304.21 219.078 297.596 226.523 292.263 232.548C286.273 239.301 281.944 244.183 280.213 254.364C276.992 273.166 289.805 283.312 289.943 283.416L288.662 284.974Z" fill="white"/>
<path d="M207.53 143.972L203.721 140.267C202.336 159.519 189.801 169.492 186.754 171.501L199.22 180.711L210.162 165.545L209.227 157.719L207.53 143.972Z" fill="#183E98"/>
<path d="M165.18 195.012C183.359 236.773 226.159 255.645 226.159 255.645C226.159 255.645 207.806 234.696 204.759 230.713C204.759 230.713 217.71 241.309 221.45 242.002C221.45 242.002 203.097 218.94 200.742 214.023C200.742 214.023 212.966 226.731 218.61 229.086C218.61 229.086 208.949 208.379 204.032 201.315C204.032 201.315 215.805 214.023 219.787 215.65C219.787 215.65 214.628 200.83 212.273 195.67C212.273 195.67 220.965 202.734 224.739 204.847C224.739 204.847 220.965 189.334 216.983 183.897C216.983 183.897 226.851 193.766 232.981 195.67C232.981 195.67 225.466 178.045 223.804 176.383C223.804 176.383 236.963 184.867 240.495 186.044C240.495 186.044 232.011 170.288 228.271 166.756C228.271 166.756 239.802 173.82 244.027 175.24C244.027 175.24 234.366 160.177 229.691 156.888L243.161 161.251C243.161 161.251 235.82 156.16 228.514 151.451C228.514 151.451 238.625 155.226 241.222 155.918C241.222 155.918 235.578 150.966 227.821 146.742L240.529 149.096L227.579 141.098L238.175 143.937L226.159 134.518C226.159 134.518 225.813 137.462 222.523 138.154C219.233 138.847 215.009 140.024 213.347 141.201C211.685 142.379 206.768 142.621 203.686 140.266C203.686 140.266 210.577 169.908 168.747 186.425C165.353 187.775 163.726 191.654 165.18 195.012Z" fill="white"/>
<path d="M256.147 184.174C255.454 184.208 253.862 182.996 253.862 182.996C253.031 183.377 251.23 186.182 251.23 186.182C249.776 179.88 256.943 178.079 256.943 178.079C256.943 178.079 261.168 172.643 262.969 171.05C264.769 169.457 266.882 171.292 265.358 172.643C263.834 174.028 260.06 176.452 260.164 177.906C260.268 179.36 261.757 179.291 262.553 180.088C263.35 180.884 263.142 181.23 263.142 181.23L258.813 181.334C258.813 181.334 256.216 181.888 256.147 184.174Z" fill="white"/>
<path d="M280.385 160.523C280.385 160.523 281.597 157.511 283.433 158.134C285.268 158.757 282.186 163.951 280.42 165.614C278.62 167.276 278.862 168.453 279.312 169.423C279.762 170.357 279.935 171.292 279.901 171.881C279.901 171.881 282.29 173.509 282.567 174.444C282.567 174.444 279.347 174.686 278.273 172.885C278.273 172.885 275.642 174.617 275.815 176.521C275.815 176.521 274.187 176.487 273.322 175.205C273.322 175.205 271.278 176.244 270.24 178.287C270.24 178.287 268.958 175.378 272.04 172.643C275.122 169.907 277.061 167.518 277.892 165.717C278.723 163.917 280.385 160.523 280.385 160.523Z" fill="white"/>
<path d="M236.34 156.611C236.34 156.611 257.498 156.091 259.749 160.523C261.965 164.921 266.016 167.657 266.709 170.081C267.955 174.444 259.749 172.851 257.74 172.054C255.697 171.223 225.502 161.008 225.502 161.008L236.34 156.611Z" fill="white"/>
<path d="M250.572 160.489L242.815 160.801C242.815 160.801 224.843 160.385 220.342 156.472C215.84 152.594 224.774 137.081 224.774 137.081C224.774 137.081 249.948 150.551 256.701 154.672C263.453 158.792 260.787 161.493 260.787 161.493L250.572 160.489Z" fill="white"/>
<path d="M250.468 153.217C250.468 153.217 250.78 153.529 250.918 153.252C252.096 150.724 273.392 147.884 283.572 157.476C286.238 160.004 283.884 161.008 278.378 160.385C272.872 159.762 258.744 162.393 258.744 162.393C258.744 162.393 250.953 157.199 250.434 156.887" fill="white"/>
<path d="M292.912 80.3306H263.816V285.455H292.912V80.3306Z" fill="#F07824"/>
</g>
<defs>
<clipPath id="clip0_301_2825">
<path d="M0.5 3.22721C0.5 1.6203 1.80266 0.317627 3.40956 0.317627H404.929C406.536 0.317627 407.839 1.62028 407.839 3.22719V284H0.5V3.22721Z" fill="white"/>
</clipPath>
</defs>
</svg>
