<svg width="64" height="64" viewBox="0 0 64 64" fill="none" xmlns="http://www.w3.org/2000/svg">
<g clip-path="url(#clip0_601_1401)">
<path fill-rule="evenodd" clip-rule="evenodd" d="M10.8464 5.34387H52.8457V23.8214L47.596 29.1009V10.6229H16.0965L16.094 52.8578H47.596V44.9389L52.8457 39.6593V58.1373H10.8464V5.34387Z" fill="#183E98"/>
<path fill-rule="evenodd" clip-rule="evenodd" d="M57.9726 26.0693L58.4861 26.5857C59.7896 27.8965 59.7901 30.0349 58.4871 31.3462L58.0952 31.7403L52.8471 26.4624L53.2365 26.0703C54.5405 24.758 56.668 24.7575 57.9726 26.0693ZM34.4707 50.2183V44.9388L50.8453 28.4728L56.0934 33.7508L39.7204 50.2178C37.9705 50.2178 36.2206 50.2178 34.4702 50.2178L34.4707 50.2183Z" fill="#183E98"/>
<path fill-rule="evenodd" clip-rule="evenodd" d="M21.3466 15.9023H42.3462V21.1818H21.3466V15.9023Z" fill="#183E98"/>
<path fill-rule="evenodd" clip-rule="evenodd" d="M21.3466 26.4613H42.3462V31.7403H21.3466V26.4613Z" fill="#183E98"/>
<path fill-rule="evenodd" clip-rule="evenodd" d="M21.3466 37.0198H37.0966L31.8464 42.2988H21.3466V37.0198Z" fill="#183E98"/>
</g>
<defs>
<clipPath id="clip0_601_1401">
<rect width="62.9991" height="63.352" fill="white" transform="translate(0.346497 0.0643616)"/>
</clipPath>
</defs>
</svg>
