<svg width="46" height="19" viewBox="0 0 46 19" fill="none" xmlns="http://www.w3.org/2000/svg">
<path d="M4.6375 18.152H1.29815L3.57498 4.94636L0.159729 6.23657L0.690988 3.27668L7.14202 0.772168H7.52149L4.6375 18.152Z" fill="#183E98"/>
<path d="M16.7048 18.152H13.3654L15.6422 4.94636L12.227 6.23657L12.7583 3.27668L19.2093 0.772168H19.5888L16.7048 18.152Z" fill="#183E98"/>
<path d="M32.2631 0.620378L31.9595 3.50437H31.8077C30.5934 3.50437 29.6067 3.80795 28.7719 4.56689C27.9371 5.24994 27.1781 6.38836 26.6469 7.83035C27.4817 6.99551 28.3924 6.54015 29.3791 6.61604C30.4416 6.61604 31.2005 7.07141 31.8077 7.90625C32.4148 8.74108 32.7184 9.80361 32.7184 11.2456C32.7943 13.3706 32.2631 15.1162 31.1246 16.4823C29.9862 17.8484 28.696 18.5315 27.0263 18.5315C25.7361 18.5315 24.7495 18.0002 23.9906 17.0136C23.2316 16.027 22.8521 14.7367 22.7762 13.143C22.7762 12.6117 22.7762 12.0804 22.8521 11.6251L23.0039 10.4108C23.3834 7.45088 24.37 5.09815 25.8879 3.35258C27.4058 1.60701 29.3791 0.696273 31.6559 0.696273H32.2631V0.620378ZM28.1648 9.27234C27.4817 9.27234 26.7987 9.72771 26.2674 10.7143C26.1156 12.0045 26.0397 12.8394 26.0397 13.2948C26.0397 14.8126 26.4192 15.5716 27.254 15.6475C27.9371 15.6475 28.4683 15.268 28.8478 14.4332C29.2273 13.5983 29.455 12.6117 29.455 11.5492C29.455 10.8661 29.3032 10.3349 29.0755 9.95539C28.8478 9.50003 28.5442 9.34824 28.1648 9.27234Z" fill="#183E98"/>
<path d="M35.5266 9.57592L37.7275 0.772168H45.9241L45.4687 3.65616H40.0043L39.0177 7.37498C39.549 6.91962 40.232 6.76783 40.991 6.69194C42.0535 6.69194 42.9642 7.07141 43.5714 7.83035C44.2544 8.5893 44.558 9.72771 44.6339 11.0938C44.7098 13.2189 44.1785 14.9644 43.116 16.3305C42.0535 17.6966 40.6874 18.3797 38.9418 18.3038C37.5757 18.3038 36.5132 17.7725 35.6784 16.7859C34.8435 15.7993 34.4641 14.585 34.4641 13.143H37.7275C37.8034 14.6609 38.2588 15.4198 39.0936 15.4198C39.7767 15.4198 40.3838 15.0403 40.7633 14.2814C41.1428 13.5224 41.2946 12.4599 41.2946 11.2456C41.2946 10.6384 41.1428 10.1072 40.9151 9.80361C40.6874 9.50003 40.3079 9.27235 39.8526 9.27235C39.2454 9.27235 38.6382 9.57592 38.107 10.1831L35.5266 9.57592Z" fill="#183E98"/>
</svg>
